	cat0	lognormal	logistic	normal	uniform
i0	b	1.32	0.77	0.56	0.22
i1	a	0.89	0.12	-0.17	0.01
i2	c	4.83	1.1	-0.94	0.44
i3	a	0.22	-0.89	-0.76	0.75
i4	a	1.2	-1.62	-0.21	0.16
i5	c	6.56	-0.38	-1.0	0.65
i6	b	1.75	-1.79	-0.11	0.87
i7	c	1.52	4.37	-1.36	0.3
i8	a	0.45	-0.8	0.92	0.57
i9	a	2.38	1.32	-0.61	0.31
i10	b	0.64	-2.13	-1.37	0.17
i11	b	0.87	-0.49	2.41	0.77
i12	c	0.97	1.13	-0.88	0.41
i13	c	2.69	2.41	2.52	0.92
i14	a	0.99	-0.97	-0.72	0.24
i15	b	0.41	-5.16	0.84	0.05
i16	a	0.5	0.18	-0.29	0.84
i17	a	2.16	-0.49	-0.16	0.88
i18	a	2.36	2.89	0.85	0.73
i19	a	0.18	-0.37	0.09	0.61
i20	c	1.58	0.92	-1.81	0.68
i21	c	1.5	-3.24	-1.59	0.42
i22	c	1.28	4.06	-0.8	0.54
i23	b	0.5	3.94	0.87	0.19
i24	a	2.34	-0.62	0.59	0.34
i25	a	9.48	1.92	-1.23	0.56
i26	a	0.85	0.81	2.07	0.75
i27	a	0.69	-0.28	-1.11	0.16
i28	c	2.41	-0.3	-0.54	0.55
i29	c	1.07	1.79	1.29	0.17
i30	b	0.82	-0.49	1.84	0.47
i31	a	1.66	-0.18	-0.35	0.1
i32	a	0.79	0.29	1.45	0.19
i33	c	0.45	-1.52	-1.29	0.94
i34	a	0.62	1.51	0.33	0.38
i35	a	4.9	-0.82	-0.34	0.66
i36	a	1.96	-2.29	-0.17	0.73
i37	c	0.48	0.25	1.53	0.88
i38	b	1.85	1.07	-0.69	0.99
i39	a	0.19	-0.71	1.35	0.02
i40	a	1.18	-1.86	-0.09	0.31
i41	b	1.13	0.22	-1.18	0.53
i42	c	2.7	-0.41	-0.7	0.87
i43	b	2.14	-1.12	0.19	0.41
i44	c	1.03	5.07	-0.8	0.57
i45	c	0.25	2.75	-0.51	0.87
i46	a	0.1	-0.1	-0.63	0.78
i47	c	0.5	-2.81	-0.35	0.62
i48	c	0.33	1.08	0.68	0.45
i49	a	0.16	0.72	-0.57	0.51
i50	a	1.31	-0.35	1.19	0.88
i51	b	1.07	-1.85	-0.37	0.28
i52	a	2.54	-1.24	0.42	0.93
i53	a	0.34	1.34	0.19	0.74
i54	c	0.34	-1.41	0.3	0.99
i55	c	2.32	1.69	0.13	0.71
i56	c	0.37	3.13	0.17	0.98
i57	c	1.42	-1.67	1.05	0.08
i58	c	1.53	-1.17	-1.33	0.81
i59	a	0.67	-1.14	-0.41	0.3
i60	a	0.44	0.62	0.2	0.03
i61	c	0.77	-1.96	-1.52	0.65
i62	b	1.03	-1.21	-1.03	0.26
i63	b	0.7	-3.05	1.18	0.77
i64	b	4.78	-0.9	-0.28	0.86
i65	a	2.74	0.8	-0.33	0.82
i66	a	1.63	1.6	0.57	0.96
i67	b	0.31	-0.39	-0.26	0.35
i68	c	0.62	0.23	-1.31	0.62
i69	c	0.27	0.51	1.25	0.53
i70	a	0.24	4.15	-0.67	0.43
i71	a	0.67	-4.02	-1.59	0.41
i72	b	0.98	0.17	-0.07	0.2
i73	a	1.09	-0.48	-0.22	0.05
i74	a	1.16	-0.48	-1.39	0.29
i75	b	6.5	-1.39	-0.29	0.75
i76	c	0.41	2.07	-1.0	0.92
i77	b	0.93	-0.26	-2.16	0.84
i78	b	1.9	1.39	0.67	0.12
i79	b	0.17	-0.36	-0.43	0.53
i80	b	0.54	1.36	-0.67	0.4
i81	b	0.77	0.16	-0.9	0.93
i82	b	1.17	0.49	-0.01	0.44
i83	b	2.14	-0.43	-0.1	0.24
i84	b	0.74	-1.03	1.34	0.34
i85	c	0.61	0.9	-0.21	0.38
i86	a	2.95	-0.88	0.87	0.56
i87	a	1.15	-2.19	-0.0	0.1
i88	a	0.89	0.28	0.08	0.52
i89	a	1.52	-2.52	0.84	0.3
i90	c	1.5	-1.0	-0.14	0.96
i91	a	1.83	-0.06	1.48	0.23
i92	b	1.07	-0.58	-0.71	0.77
i93	c	0.24	2.05	-1.11	0.26
i94	a	6.93	1.16	0.28	0.04
i95	a	1.82	3.52	1.89	0.68
i96	c	1.32	-1.16	-0.57	0.32
i97	b	1.1	-1.74	-0.31	0.54
i98	b	6.57	-0.52	0.54	0.95
i99	a	0.07	1.01	-0.7	0.01
i100	b	1.09	-0.55	-0.91	0.62
i101	a	9.76	-0.57	0.38	0.51
i102	b	1.57	-1.94	-0.97	0.62
i103	a	0.86	2.62	0.85	0.93
i104	c	1.82	1.09	-0.96	0.78
i105	b	5.64	-0.46	-0.14	0.31
i106	c	0.92	0.3	1.03	0.85
i107	a	0.27	6.53	-0.98	0.43
i108	c	2.34	0.78	1.71	0.54
i109	c	3.64	1.59	1.04	0.1
i110	b	0.72	0.87	0.26	0.37
i111	a	0.94	-1.56	0.99	0.41
i112	a	3.13	-1.8	-0.81	0.28
i113	b	2.02	-0.63	-0.8	0.57
i114	c	1.1	-8.76	-0.08	0.31
i115	a	0.24	0.7	0.96	0.79
i116	a	1.46	0.92	-2.12	0.02
i117	a	3.97	1.45	1.99	0.15
i118	b	1.2	-3.54	-0.35	0.06
i119	c	1.06	-2.98	0.4	0.31
i120	c	0.71	-3.98	-0.58	0.23
i121	b	2.02	-1.3	-0.19	0.67
i122	a	1.78	-1.01	0.19	0.49
i123	b	2.71	0.91	0.91	0.82
i124	a	1.94	-0.79	1.33	0.85
i125	c	0.92	3.07	-0.24	0.84
i126	a	0.63	1.17	-0.89	0.1
i127	a	0.82	-0.13	0.82	0.83
i128	c	0.35	-0.56	-0.63	0.01
i129	c	1.32	0.01	-2.3	0.54
i130	c	0.18	5.66	1.39	0.27
i131	b	0.21	0.2	0.09	0.56
i132	b	0.44	0.24	-0.4	0.12
i133	c	1.44	0.51	1.05	0.04
i134	a	4.2	-2.08	-2.04	0.75
i135	b	2.42	-0.58	0.08	0.54
i136	c	0.41	0.33	-0.39	0.45
i137	a	0.19	2.21	-0.28	0.46
i138	b	2.97	0.27	0.81	0.71
i139	c	0.09	-1.73	1.99	0.41
i140	b	1.58	2.71	-0.66	0.69
i141	a	0.48	2.86	0.47	0.63
i142	b	1.04	2.73	0.72	0.34
i143	a	0.31	0.23	-0.02	0.63
i144	a	0.55	-1.89	0.21	0.23
i145	a	1.22	0.51	1.85	0.07
i146	a	0.5	-0.51	2.71	0.51
i147	c	0.81	-0.78	0.07	0.12
i148	b	3.42	0.56	-0.57	0.13
i149	c	1.83	0.27	-0.02	0.63
i150	a	0.26	-1.28	-1.85	0.02
i151	c	1.1	0.53	0.46	0.09
i152	a	0.87	-3.04	-1.86	0.28
i153	a	0.93	0.01	0.43	0.35
i154	c	1.95	0.75	2.17	0.36
i155	a	0.98	0.63	0.65	0.28
i156	c	0.36	-0.48	0.01	0.61
i157	c	2.1	1.2	-0.7	0.69
i158	b	1.07	2.49	-1.78	0.59
i159	a	1.79	0.1	-0.23	0.27
i160	b	0.18	0.48	-0.43	0.08
i161	a	1.32	-0.77	-1.32	0.52
i162	a	0.18	3.94	-0.39	0.59
i163	c	0.8	4.94	1.07	0.94
i164	c	0.74	-3.3	-0.26	0.63
i165	a	0.82	-0.2	0.42	0.69
i166	a	1.32	3.46	0.2	0.1
i167	b	0.82	-0.97	-2.67	0.84
i168	b	0.55	1.57	-0.1	0.86
i169	b	0.94	-0.56	0.53	0.42
i170	b	0.47	-1.16	0.42	0.27
i171	b	3.09	-0.87	0.19	0.78
i172	c	0.18	-0.77	1.17	0.07
i173	c	0.68	-0.6	-0.32	0.56
i174	c	2.38	1.27	-1.29	0.66
i175	b	0.41	1.36	-0.54	0.24
i176	b	0.3	1.3	2.44	0.89
i177	c	1.67	1.74	0.18	0.93
i178	c	0.48	-1.06	0.46	0.84
i179	a	0.61	-1.58	2.57	0.53
i180	c	1.14	-0.15	-0.31	0.73
i181	c	2.69	-1.49	1.16	0.73
i182	b	3.29	-0.04	-0.49	0.17
i183	a	1.0	0.97	0.96	0.36
i184	a	3.3	-1.05	0.95	0.07
i185	c	1.73	1.86	-0.99	0.53
i186	a	2.0	-0.58	-0.23	0.09
i187	a	0.77	-3.15	-0.91	0.19
i188	c	1.58	-2.91	-0.21	0.06
i189	b	1.47	-0.08	-0.68	0.9
i190	a	0.56	1.0	1.29	0.19
i191	a	4.91	-0.07	-0.35	0.1
i192	b	1.14	2.1	1.18	0.2
i193	c	0.33	-0.89	1.54	0.42
i194	a	2.01	-0.44	-0.67	0.86
i195	a	2.25	-0.41	1.74	0.55
i196	a	0.57	0.12	-0.11	0.66
i197	c	0.6	5.83	0.82	0.76
i198	a	0.66	2.38	-1.98	0.79
i199	b	6.83	1.59	-1.73	0.69
i200	a	0.56	-0.22	-1.56	0.58
i201	a	2.86	-0.01	-0.2	0.57
i202	b	1.91	-0.15	-0.45	0.63
i203	c	5.93	2.17	-1.82	0.84
i204	c	1.53	0.56	1.51	0.38
i205	a	0.17	0.97	-1.3	0.23
i206	b	0.87	-2.95	-0.45	0.18
i207	b	0.37	-1.27	-0.2	0.87
i208	b	3.81	1.52	-0.84	0.18
i209	c	0.13	-0.08	1.16	0.06
i210	b	1.77	-0.14	0.76	0.28
i211	c	0.37	0.7	-1.38	0.45
i212	a	0.66	0.78	-0.17	0.7
i213	b	2.25	-0.52	-0.01	0.12
i214	b	2.0	-0.6	-1.41	0.08
i215	a	0.67	0.68	-1.46	0.23
i216	a	2.99	2.54	-1.51	0.97
i217	c	1.28	-1.23	-0.43	0.26
i218	b	1.88	0.13	0.1	0.09
i219	c	1.22	-1.69	-0.71	0.35
i220	a	3.72	0.41	-0.14	0.07
i221	b	1.36	1.94	0.37	0.92
i222	a	3.38	-1.62	1.33	0.46
i223	a	0.95	-2.26	-0.73	0.95
i224	a	0.84	0.59	1.0	0.13
i225	a	1.23	1.72	-0.26	0.84
i226	c	3.98	-2.7	-0.56	0.79
i227	b	1.71	1.36	0.03	0.75
i228	a	0.58	-0.15	0.67	0.65
i229	a	0.76	-1.35	-1.04	0.45
i230	b	2.71	0.06	0.2	0.36
i231	c	1.27	0.0	-0.66	0.99
i232	b	0.87	2.75	0.07	0.33
i233	a	0.3	-0.55	0.66	0.33
i234	b	1.06	0.19	0.89	0.62
i235	b	2.89	2.66	-0.36	0.06
i236	a	0.51	-1.31	-0.99	0.81
i237	a	2.62	1.06	-1.45	0.91
i238	c	1.46	1.68	0.67	0.64
i239	a	0.72	-2.77	1.78	0.18
i240	a	1.29	-0.6	-0.19	0.6
i241	b	0.92	-2.09	0.06	0.45
i242	b	0.24	-0.08	0.34	0.48
i243	b	1.11	-1.48	1.26	0.83
i244	b	0.71	0.73	1.06	0.51
i245	c	0.43	-0.04	-0.5	0.3
i246	b	0.59	-0.89	1.68	0.05
i247	c	0.3	-0.22	2.32	0.74
i248	b	2.41	-0.26	0.0	0.66
i249	b	0.23	1.45	-0.15	0.95
i250	a	0.35	0.27	-0.88	0.09
i251	a	0.13	0.11	1.28	0.68
i252	c	1.09	-0.85	-0.99	0.55
i253	a	1.48	2.6	0.56	0.56
i254	c	2.03	-0.95	-1.1	0.7
i255	a	2.56	2.82	0.05	0.56
i256	c	3.24	-1.93	0.06	0.09
i257	b	0.78	0.99	-0.63	0.38
i258	a	0.74	0.22	0.8	0.5
i259	a	1.33	-1.71	0.63	0.77
i260	c	1.48	3.68	-0.8	0.86
i261	a	1.13	1.2	0.72	0.09
i262	c	0.23	1.94	0.13	0.5
i263	a	1.52	-0.37	0.06	0.24
i264	a	0.3	1.15	-1.47	0.74
i265	b	1.3	3.52	-0.53	0.6
i266	b	0.07	-2.21	-0.23	0.67
i267	c	0.8	0.26	0.36	0.46
i268	b	4.49	-0.8	0.24	0.89
i269	b	0.45	2.3	0.03	0.2
i270	b	2.61	-0.23	-0.35	0.34
i271	c	1.03	0.18	1.12	0.11
i272	b	0.84	0.45	1.61	0.5
i273	c	0.26	-1.13	0.6	0.54
i274	a	1.57	-0.1	-0.32	0.09
i275	b	0.83	-0.7	-0.68	0.28
i276	a	4.08	1.27	-1.29	0.81
i277	a	0.24	0.28	-0.87	0.27
i278	c	2.14	-1.71	0.48	0.88
i279	b	0.4	-2.4	-0.38	0.99
i280	b	0.32	-1.72	-1.39	0.53
i281	a	5.87	0.05	-0.76	0.39
i282	c	1.46	2.64	2.36	0.46
i283	b	1.13	0.26	1.31	1.0
i284	b	5.39	-1.01	0.17	0.89
i285	c	0.53	0.47	0.49	0.32
i286	a	0.43	-0.46	-1.45	0.58
i287	a	1.1	1.55	-2.13	0.32
i288	b	1.0	-0.94	-1.51	0.67
i289	a	0.87	0.43	-0.73	0.36
i290	a	0.54	1.59	-0.52	0.15
i291	b	0.88	0.5	0.93	0.14
i292	a	0.94	0.81	-1.23	0.23
i293	a	4.72	-0.95	0.4	0.56
i294	b	0.81	-0.72	0.45	0.1
i295	b	1.92	-0.79	0.21	0.5
i296	c	2.4	0.47	-0.45	0.1
i297	b	1.63	-0.7	0.84	0.2
i298	c	2.76	1.11	0.64	0.31
i299	c	0.73	-2.47	-1.47	0.22
i300	b	2.31	-1.42	-0.36	0.4
i301	c	1.09	0.48	0.0	0.16
i302	a	1.28	-1.93	0.43	0.88
i303	b	0.77	-0.35	-1.62	0.29
i304	a	2.66	-1.15	2.16	0.51
i305	c	2.24	-0.25	0.62	0.25
i306	c	1.0	-1.3	-0.25	0.34
i307	b	1.64	3.21	1.59	0.34
i308	b	3.6	2.12	0.59	0.21
i309	b	0.12	-1.25	-0.34	0.94
i310	c	0.98	-2.94	-1.03	0.83
i311	c	3.91	0.43	0.26	0.21
i312	b	0.47	6.5	1.21	0.97
i313	b	0.32	-1.59	-0.64	0.76
i314	b	0.36	1.78	2.72	0.52
i315	a	4.04	0.78	0.07	0.96
i316	c	0.45	-2.76	-0.43	0.98
i317	b	0.85	2.31	-1.51	0.0
i318	b	0.14	-3.29	-0.18	0.02
i319	a	14.54	-1.91	-0.7	0.51
i320	a	1.07	0.78	-1.55	0.0
i321	b	3.66	-2.1	-0.38	0.02
i322	b	1.33	0.49	-1.77	0.05
i323	b	1.36	2.69	-0.77	0.35
i324	c	0.8	0.18	-0.62	0.61
i325	a	2.38	-2.7	0.22	0.8
i326	a	0.54	-1.12	1.48	0.28
i327	b	0.39	-0.38	-0.76	0.54
i328	c	0.41	3.98	0.16	0.79
i329	a	2.74	1.33	0.88	0.43
i330	c	0.71	-0.48	0.07	0.41
i331	b	1.11	-2.83	-0.32	0.7
i332	b	0.58	-0.73	1.79	0.14
i333	c	0.36	-1.12	-0.81	0.94
i334	c	0.18	-1.73	-1.16	0.42
i335	a	2.57	-3.69	0.28	0.37
i336	c	1.43	4.36	-0.29	0.89
i337	a	0.42	-1.15	0.49	0.8
i338	a	0.91	2.34	-1.2	0.33
i339	c	1.39	-0.43	0.86	0.31
i340	c	0.48	-1.6	0.47	0.75
i341	a	1.52	1.52	0.24	0.89
i342	a	0.53	2.41	1.07	0.12
i343	c	2.75	1.46	-1.82	0.82
i344	a	0.61	-1.83	1.09	0.6
i345	c	1.01	-1.3	-0.1	0.57
i346	b	0.59	-0.03	-1.09	0.25
i347	c	0.36	1.48	-0.03	0.98
i348	a	1.18	-0.0	0.03	0.77
i349	c	0.68	1.01	-1.07	0.96
i350	b	5.98	0.26	-0.64	0.51
i351	b	1.25	-0.41	1.02	0.98
i352	b	1.33	0.46	-0.24	0.08
i353	a	0.82	1.97	-0.53	0.67
i354	a	5.31	-1.33	0.76	0.23
i355	c	3.9	-0.43	-1.28	0.3
i356	c	0.65	-0.67	1.74	0.69
i357	a	1.65	-0.09	-1.02	0.27
i358	a	0.6	2.48	-0.74	0.06
i359	c	0.84	2.05	-1.06	0.27
i360	b	0.33	-2.38	1.22	0.06
i361	c	2.56	3.0	0.54	0.89
i362	b	1.13	-0.44	-0.9	0.16
i363	a	0.81	0.07	1.2	0.2
i364	a	6.06	4.18	0.04	0.09
i365	b	0.44	2.79	-0.74	0.46
i366	c	1.23	0.97	-1.02	0.29
i367	a	4.64	0.34	1.71	0.63
i368	c	10.84	2.84	-0.79	0.41
i369	a	0.29	2.42	0.4	0.44
i370	b	3.08	1.16	0.68	0.26
i371	b	5.6	-0.9	-0.09	0.39
i372	a	0.55	-0.23	1.12	0.16
i373	a	0.43	-0.21	2.23	0.15
i374	b	2.33	0.95	1.36	0.35
i375	b	2.6	-0.06	-0.42	0.82
i376	b	1.82	-1.06	0.13	0.33
i377	c	0.38	-0.99	-0.19	0.75
i378	a	2.27	-0.81	1.16	0.4
i379	a	3.8	-1.68	0.41	0.25
i380	b	0.91	1.31	-0.5	0.65
i381	a	1.84	1.84	-0.68	0.09
i382	b	9.65	-0.19	-1.41	0.19
i383	a	5.27	3.62	-1.72	0.93
i384	a	0.74	-1.53	-1.04	0.82
i385	a	0.85	0.95	0.0	0.89
i386	c	0.23	2.48	0.82	0.87
i387	b	0.64	-0.32	0.4	0.47
i388	c	0.77	1.18	-0.28	0.22
i389	b	2.51	1.24	0.19	0.31
i390	a	1.22	0.68	0.11	0.85
i391	c	0.33	0.37	1.99	0.6
i392	b	5.36	2.35	-1.26	0.59
i393	c	1.25	-1.31	0.32	0.08
i394	c	0.68	0.07	-1.75	0.62
i395	b	0.58	2.25	-0.75	0.84
i396	b	0.3	0.56	0.1	0.54
i397	a	5.81	2.2	-0.74	0.55
i398	a	1.62	2.39	0.57	0.4
i399	b	0.6	0.96	-0.6	0.02
i400	c	4.26	1.35	-1.37	0.04
i401	a	0.77	0.74	-0.69	0.16
i402	a	18.72	3.17	-2.68	0.05
i403	a	0.45	-1.58	1.96	0.44
i404	a	1.01	1.21	0.28	0.13
i405	c	1.32	2.78	0.4	0.01
i406	b	0.69	3.5	-1.27	0.07
i407	c	0.66	-0.68	0.67	0.64
i408	b	0.57	1.74	-1.38	0.06
i409	b	0.84	-0.57	-1.16	0.85
i410	c	4.75	-0.31	-0.27	0.34
i411	c	3.69	1.96	0.75	0.07
i412	a	1.49	3.69	0.29	0.46
i413	a	1.29	-0.15	0.87	0.26
i414	a	0.94	0.39	-0.25	0.31
i415	c	0.14	1.98	0.53	0.28
i416	c	6.14	0.94	-0.11	0.34
i417	b	2.35	-0.66	0.78	0.06
i418	a	0.57	3.42	0.18	0.82
i419	b	2.53	3.35	0.81	0.67
i420	b	0.61	-0.36	1.93	0.25
i421	c	5.34	0.37	-0.12	0.65
i422	b	3.25	-2.11	-0.25	0.99
i423	c	1.7	-1.12	0.76	0.56
i424	a	0.19	-2.19	-1.12	0.55
i425	b	0.51	-1.55	-0.11	0.93
i426	b	3.07	-2.15	-0.69	0.49
i427	c	1.61	1.31	1.48	0.55
i428	c	5.49	2.73	-0.08	0.12
i429	a	6.91	1.66	1.14	0.98
i430	b	0.36	-0.46	1.53	0.61
i431	a	0.68	0.65	-1.33	0.17
i432	a	1.04	0.52	-0.82	0.5
i433	a	2.11	0.01	1.37	0.74
i434	b	0.46	0.69	0.2	0.65
i435	b	1.6	-3.46	0.55	0.33
i436	c	1.51	1.16	0.01	0.48
i437	c	30.58	0.46	-1.09	0.33
i438	a	2.38	1.36	-0.7	0.19
i439	a	0.7	-0.22	0.48	0.23
i440	a	7.11	-1.51	-0.56	0.56
i441	b	1.95	-3.73	1.59	0.53
i442	c	1.57	0.59	0.48	0.24
i443	a	0.94	-2.12	-0.45	0.46
i444	c	1.02	1.29	-0.68	0.35
i445	a	1.76	2.18	0.18	0.87
i446	a	0.26	-1.31	-0.57	0.08
i447	a	0.82	-0.03	0.29	0.91
i448	c	0.82	2.15	0.53	0.07
i449	c	2.0	1.95	0.09	0.01
i450	a	1.56	2.24	-0.65	0.38
i451	c	0.95	-0.65	0.27	0.57
i452	c	0.85	-0.36	-1.6	0.45
i453	a	1.23	-0.73	-0.21	0.01
i454	b	0.29	0.63	0.76	0.55
i455	b	0.27	-0.42	-0.73	0.97
i456	a	0.32	-1.15	1.62	0.32
i457	c	0.15	1.25	-0.36	0.18
i458	a	1.23	-0.35	-1.57	0.84
i459	b	1.93	0.78	1.01	0.43
i460	c	2.05	4.56	0.65	0.15
i461	c	1.62	-1.51	1.03	0.37
i462	b	0.97	-1.18	2.21	0.73
i463	b	0.09	-0.88	-0.2	0.81
i464	a	1.05	0.96	-0.32	0.56
i465	c	4.1	-0.64	-0.43	0.75
i466	b	0.72	-0.03	0.89	0.37
i467	c	4.91	-0.78	1.1	0.21
i468	c	5.12	3.72	-1.52	0.71
i469	a	0.47	1.89	0.9	0.84
i470	c	0.48	0.9	-0.03	0.35
i471	c	3.2	2.78	0.41	0.19
i472	b	0.84	-0.48	-0.11	0.61
i473	b	0.76	0.87	1.13	0.65
i474	b	0.36	-3.2	2.39	0.74
i475	a	2.63	1.02	-1.97	0.1
i476	c	0.7	0.55	0.95	0.55
i477	b	0.77	-3.57	-0.09	0.73
i478	b	0.43	0.87	0.75	0.22
i479	a	0.22	1.01	-0.46	0.33
i480	a	2.45	5.32	-0.91	0.77
i481	b	1.23	2.1	-0.46	0.88
i482	b	0.58	0.12	-0.39	0.33
i483	a	2.49	-0.57	-0.18	0.26
i484	c	0.92	-0.58	2.48	0.11
i485	a	0.81	0.25	-1.59	0.3
i486	b	0.64	1.01	-0.01	0.78
i487	c	4.3	1.04	0.37	0.69
i488	b	10.46	3.37	-0.87	0.17
i489	b	1.67	-0.88	-0.79	0.33
i490	a	1.83	-0.89	0.32	0.3
i491	a	1.34	-1.57	-0.44	0.52
i492	a	1.3	3.23	-0.96	0.68
i493	b	0.33	1.05	1.05	0.6
i494	a	0.93	2.13	-0.48	0.71
i495	a	2.97	-2.82	0.01	0.83
i496	c	0.92	0.66	0.11	0.86
i497	c	0.22	-0.69	0.66	0.85
i498	a	0.33	0.69	-0.06	0.86
i499	c	0.37	4.46	-0.46	0.98
