	c0	c1	c2
i0	0.48	1.92	2.37
i1	0.37	0.6	0.63
i2	0.02	0.14	2.8499999999999996
i3	0.27	0.42	1.23
i4	0.28	0.3	2.94
i5	0.67	0.42	0.48
i6	0.87	0.18	0.99
i7	0.66	1.56	2.0999999999999996
i8	0.5	0.52	2.64
i9	0.65	2.0	1.6500000000000001
