	cat0	lognormal	logistic	normal	uniform
0	c	5.47	3.95	5.46	14.76
1	c	6.11	5.85	5.08	14.52
2	a	13.59	6.9	17.8	17.16
3	a	14.65	7.11	17.86	17.31
4	c	5.58	3.16	4.97	14.94
5	c	7.33	6.0299999999999985	3.79	14.54
6	c	5.55	2.64	3.43	14.71
7	a	14.76	3.95	16.07	17.84
8	a	14.11	7.12	17.34	17.16
9	c	5.24	2.23	2.94	14.99
10	b	5.87	10.39	1.02	19.41
11	c	5.23	3.77	5.41	14.71
12	a	14.01	2.95	15.83	17.41
13	b	6.09	14.97	0.63	19.58
14	b	5.32	12.85	1.58	19.05
15	c	6.77	5.63	4.18	14.43
16	b	7.3599999999999985	13.46	1.84	19.59
17	a	19.0	7.6	18.8	17.22
18	a	14.03	3.49	18.09	17.68
19	c	5.44	2.8	3.4	14.03
20	c	14.64	2.71	4.45	14.04
21	a	30.63	6.68	16.97	17.73
22	c	5.21	3.73	3.62	14.26
23	c	5.76	2.75	5.53	14.48
24	b	7.19	11.92	3.91	19.13
25	c	6.3100000000000005	7.2200000000000015	4.83	14.07
26	a	14.35	6.71	18.47	17.76
27	b	5.85	13.33	2.29	19.64
28	c	5.27	3.14	3.24	14.55
29	a	13.36	6.84	15.68	17.53
30	b	5.86	12.3	1.18	19.2
31	c	6.3100000000000005	2.47	5.21	14.12
32	b	5.95	10.94	1.84	19.44
33	a	16.240000000000002	9.29	17.3	17.5
34	b	5.48	10.66	0.31000000000000005	19.9
35	a	14.81	2.38	16.76	17.61
36	b	6.3100000000000005	11.94	1.66	19.01
37	c	6.1	6.3	4.19	14.71
38	c	6.02	3.64	6.13	14.12
39	a	19.39	5.7	16.23	17.19
40	a	17.46	6.4	17.77	17.51
41	c	5.19	2.08	4.41	14.24
42	c	7.19	0.7400000000000002	3.54	14.09
43	b	6.75	13.61	0.23	19.78
44	b	7.67	12.47	2.33	19.49
45	a	16.78	4.91	16.19	17.26
46	b	5.46	14.24	2.6	19.78
47	b	5.38	11.37	1.3	19.09
48	a	15.6	8.48	17.1	17.75
49	b	5.49	11.54	0.30000000000000004	19.78
50	c	6.35	3.34	4.43	14.68
51	c	7.43	2.63	4.97	14.75
52	a	13.16	6.93	17.34	17.53
53	c	5.3	2.79	5.57	14.21
54	c	5.24	3.23	6.15	14.8
55	a	13.34	7.46	16.56	17.2
56	c	5.33	3.47	4.13	14.27
57	c	6.34	2.14	3.99	14.29
58	c	5.8100000000000005	5.29	5.29	14.54
59	b	5.88	11.51	0.11	19.36
60	c	5.55	4.66	5.19	14.9
61	c	6.11	3.26	5.59	14.73
62	a	15.18	7.51	16.86	17.46
63	a	13.2	3.14	16.9	17.51
64	c	5.71	3.26	5.69	14.86
65	a	16.61	11.81	16.56	17.28
66	a	13.17	12.58	18.12	17.06
67	a	16.75	5.64	16.37	17.13
68	a	13.52	3.87	15.67	17.93
69	c	10.33	3.62	5.8100000000000005	14.78
70	c	6.19	3.62	5.14	14.73
71	c	5.64	2.2	5.59	14.93
72	a	13.69	8.879999999999997	16.93	17.55
73	b	5.23	12.93	1.62	19.84
74	c	5.89	3.53	5.46	14.77
75	a	13.43	1.97	16.71	17.55
76	b	10.99	11.25	1.69	19.35
77	b	6.37	16.67	1.28	19.21
78	c	7.73	1.5099999999999998	5.09	14.73
79	c	5.13	4.3	3.56	14.52
80	c	5.29	5.42	3.72	14.35
81	b	6.72	11.91	0.95	19.69
82	c	5.3	4.06	5.66	14.14
83	c	5.78	3.93	5.49	14.03
84	a	13.62	8.0	17.65	17.83
85	b	5.84	14.24	1.61	19.6
86	c	5.47	4.06	5.79	14.46
87	a	13.26	1.1799999999999995	17.08	17.59
88	b	6.5	12.45	1.11	19.22
89	a	13.43	5.87	17.38	17.11
90	c	5.34	2.79	5.15	14.91
91	a	13.93	6.92	17.93	17.31
92	b	5.99	11.16	1.96	19.31
93	a	13.84	7.02	16.46	17.91
94	b	11.44	10.87	0.21	19.7
95	a	13.57	7.08	15.78	17.18
96	a	14.33	7.92	17.98	17.31
97	b	6.52	10.12	2.18	19.57
98	a	13.59	6.62	17.76	17.48
99	a	13.31	4.99	17.7	17.29
100	a	14.69	6.82	17.43	17.8
101	b	9.59	12.8	1.53	19.89
102	a	14.57	7.42	15.16	17.93
103	a	17.11	5.45	17.38	17.93
104	a	13.12	6.93	17.84	17.52
105	b	6.3	12.91	0.6699999999999999	19.39
106	b	6.23	12.95	0.29000000000000004	19.03
107	c	5.09	5.94	3.53	14.55
108	b	5.98	9.46	1.1	19.86
109	a	20.13	6.73	17.74	17.73
110	a	16.8	6.43	16.87	17.98
111	c	7.689999999999999	5.79	5.34	14.36
112	c	12.33	5.75	6.1	14.87
113	c	5.43	4.92	4.76	14.91
114	c	5.22	6.08	5.64	14.18
115	c	5.4	3.93	5.13	14.29
116	c	5.69	5.4	6.0600000000000005	14.73
117	b	6.49	10.8	2.84	19.47
118	b	9.74	13.84	1.4	19.76
119	a	13.69	8.8	16.0	17.23
120	c	5.89	4.26	4.01	14.51
121	a	13.25	8.4	15.82	17.32
122	a	13.28	5.36	15.92	17.28
123	a	13.75	13.77	18.4	17.79
124	b	8.7	13.97	1.58	19.2
125	c	7.18	5.25	5.87	14.15
126	b	5.78	11.08	0.56	19.61
127	c	6.12	3.78	5.49	14.81
128	a	13.88	6.23	16.29	17.99
129	b	6.68	12.82	0.85	19.95
130	c	5.41	2.16	5.77	14.78
131	a	14.56	8.61	17.8	17.1
132	b	7.26	13.54	0.53	19.66
133	b	5.84	13.67	2.91	19.5
134	b	5.26	11.85	0.05000000000000005	19.85
135	b	6.24	11.06	1.47	19.82
136	a	20.32	6.27	16.05	17.45
137	a	16.15	7.9	17.49	17.75
138	c	5.13	4.16	5.77	14.53
139	c	5.57	3.73	1.67	14.24
140	c	6.89	5.24	5.51	14.34
141	a	14.35	8.28	15.86	17.53
142	c	5.8100000000000005	2.13	4.46	14.11
143	a	16.38	8.44	17.31	17.47
144	a	13.55	7.17	15.74	17.03
145	a	13.56	7.82	17.26	17.28
146	c	5.61	2.43	4.84	14.26
147	a	14.29	5.08	17.41	17.5
148	a	13.36	6.42	16.44	17.22
149	a	13.15	7.15	18.16	17.01
150	a	23.68	6.52	18.07	17.21
151	c	5.58	4.48	4.9	14.37
152	b	5.62	13.86	-0.3899999999999999	19.69
153	a	15.61	7.64	16.14	17.15
154	c	5.08	4.88	4.65	14.22
155	a	13.62	5.07	19.15	17.6
156	b	8.75	12.19	1.22	19.98
157	b	6.77	9.54	0.11	19.98
158	c	6.63	4.8	5.17	14.76
159	b	5.12	15.0	0.62	19.33
160	b	6.61	12.42	-0.69	19.73
161	c	6.08	5.35	6.3	14.65
162	a	14.27	8.01	17.41	17.27
163	a	13.5	5.52	17.34	17.83
164	c	7.01	3.27	4.3100000000000005	14.8
165	b	7.6	12.34	-0.28	19.25
166	c	6.91	4.03	5.54	14.43
167	b	5.47	12.06	-0.23	19.12
168	b	5.32	9.07	1.91	19.86
169	c	7.439999999999999	5.59	5.65	14.84
170	a	25.87	5.94	17.69	17.46
171	a	24.23	9.29	18.33	17.39
172	b	5.53	7.42	-1.5	19.64
173	b	5.33	10.92	0.91	19.25
174	a	16.02	7.29	17.28	17.57
175	c	6.49	5.14	5.51	14.12
176	a	13.56	7.4	16.81	17.68
177	b	6.03	11.97	-0.1299999999999999	19.04
178	a	14.62	3.98	17.61	17.76
179	c	5.51	6.77	3.06	14.54
180	c	6.02	0.4900000000000002	4.81	14.31
181	a	15.69	5.69	17.8	17.59
182	c	6.34	5.59	6.17	14.1
183	c	5.31	4.66	4.18	14.06
184	a	13.65	6.34	15.98	17.08
185	c	5.96	5.38	4.72	14.52
186	a	13.42	8.93	18.08	17.78
187	c	6.58	3.81	4.3100000000000005	14.27
188	b	6.33	11.89	0.33	19.13
189	a	16.05	8.31	17.42	17.55
190	b	6.47	12.31	0.81	19.34
191	c	5.58	4.88	4.91	14.46
192	a	15.23	11.37	15.88	17.94
193	b	11.83	13.86	1.6800000000000002	19.76
194	c	5.95	6.4700000000000015	4.98	14.93
195	c	7.0	-3.09	5.9	14.1
196	a	13.41	6.79	17.34	17.64
197	b	6.54	12.55	0.29000000000000004	19.66
198	c	5.2	2.85	7.19	14.57
199	c	5.47	3.13	4.76	14.8
200	b	20.5	15.85	0.96	19.28
201	c	6.32	3.24	6.26	14.75
202	b	6.47	12.39	1.44	19.26
203	b	8.77	11.7	0.84	19.13
204	c	5.89	3.05	5.98	14.2
205	c	5.59	2.41	5.7	14.78
206	c	5.2	0.96	6.1	14.49
207	a	13.52	5.29	16.21	17.14
208	b	8.39	11.09	0.99	19.47
209	b	5.76	10.48	-0.3400000000000001	19.17
210	b	5.04	13.58	0.8200000000000001	19.19
211	a	13.98	7.11	16.66	17.53
212	b	6.13	10.72	-0.3899999999999999	19.23
213	c	5.77	3.58	7.62	14.84
214	b	7.6400000000000015	13.12	0.010000000000000007	19.59
215	b	5.72	14.16	0.5800000000000001	19.31
216	b	5.88	13.56	0.81	19.65
217	c	5.36	3.9	3.65	14.1
218	b	8.19	10.54	1.44	19.05
219	c	5.8100000000000005	6.21	4.87	14.1
220	c	6.46	4.18	6.21	14.34
221	a	14.62	6.23	18.47	17.21
222	c	7.58	4.88	5.1	14.02
223	b	6.17	10.06	1.77	19.03
224	b	5.05	14.36	0.22	19.88
225	b	8.120000000000001	13.3	1.19	19.99
226	b	5.63	12.35	2.0	19.92
227	c	5.74	5.69	5.98	14.6
228	c	5.28	1.99	5.03	14.01
229	a	14.86	8.65	16.92	17.8
230	b	6.91	7.73	2.09	19.17
231	b	5.49	9.08	0.8	19.8
232	c	9.77	4.97	4.95	14.96
233	c	7.63	2.95	4.52	14.03
234	c	7.07	5.38	5.61	14.94
235	b	5.51	12.4	1.48	19.23
236	c	6.36	5.7	3.8	14.41
237	b	7.26	11.51	0.84	19.04
238	c	6.02	5.7	4.53	14.43
239	a	14.42	5.62	17.39	17.61
240	b	5.71	13.82	-0.1100000000000001	19.78
241	a	15.91	4.2	16.33	17.6
242	c	5.68	4.44	6.66	14.21
243	b	6.89	11.52	0.56	19.85
244	b	5.64	14.99	0.76	19.42
245	a	13.61	7.11	16.34	17.77
246	a	18.72	6.99	16.58	17.25
247	a	13.67	5.89	16.5	17.47
248	a	13.48	5.44	18.5	17.21
249	b	9.66	12.91	0.11	19.68
250	b	7.8	11.58	-0.5700000000000001	19.08
251	c	5.34	2.91	5.82	14.04
252	c	6.22	4.95	4.77	14.5
253	c	8.16	3.28	2.69	14.53
254	c	6.29	2.48	4.83	14.92
255	a	13.27	4.24	17.14	17.27
256	c	6.67	4.3	5.15	14.19
257	b	5.64	12.68	1.24	19.04
258	b	5.99	13.48	0.87	19.4
259	a	14.36	7.73	17.16	17.55
260	a	13.28	7.36	16.5	17.6
261	a	14.01	8.14	17.28	17.55
262	c	5.69	3.82	5.97	14.56
263	c	5.12	4.54	5.65	14.43
264	a	30.87	8.06	16.34	17.81
265	c	6.1	6.1099999999999985	5.54	14.08
266	c	6.23	1.52	5.65	14.59
267	b	6.03	12.23	0.5700000000000001	19.42
268	c	5.25	5.49	4.24	14.84
269	b	5.58	12.58	1.24	19.77
270	b	5.5600000000000005	13.74	-0.3600000000000001	19.48
271	c	7.33	3.41	5.9	14.51
272	c	7.6099999999999985	2.77	5.13	14.63
273	a	14.68	1.97	16.58	17.98
274	a	15.36	6.91	17.67	17.43
275	a	13.16	6.48	14.46	17.04
276	b	5.34	12.47	0.98	19.99
277	c	5.7	3.43	3.51	14.67
278	b	8.66	9.47	0.48	19.1
279	b	5.75	11.69	1.07	19.69
280	b	7.09	15.66	2.91	19.87
281	b	6.7	15.04	0.6	19.75
282	c	5.63	5.57	5.03	14.21
283	a	17.73	7.41	15.96	17.65
284	a	15.15	7.53	17.87	17.03
285	c	6.28	6.79	3.83	14.62
286	b	9.31	12.51	1.94	19.07
287	c	9.16	2.87	6.0600000000000005	14.97
288	a	13.07	2.37	16.52	17.79
289	c	5.65	6.32	5.62	14.97
290	b	5.91	10.86	1.09	19.42
291	a	13.42	4.63	17.69	17.83
292	c	6.74	2.7	3.18	14.8
293	a	13.94	8.45	18.59	17.58
294	a	14.67	4.9	18.35	17.91
295	b	6.39	11.94	0.96	19.29
296	c	5.08	4.24	6.07	14.26
297	b	5.59	13.0	-0.6499999999999999	19.96
298	c	6.24	6.8	3.92	14.85
299	a	13.1	4.5299999999999985	17.56	17.78
300	c	5.52	3.77	4.43	14.05
301	c	5.79	4.2	5.27	14.67
302	b	6.33	13.71	1.29	19.52
303	b	5.73	11.07	-1.44	19.17
304	b	7.17	13.74	2.8600000000000003	19.22
305	c	5.27	4.99	6.32	14.65
306	c	5.74	5.4	4.3	14.04
307	c	6.03	5.44	4.72	14.44
308	b	9.12	14.69	0.36	19.12
309	a	13.31	7.27	17.9	17.89
310	b	5.15	10.44	1.14	19.14
311	b	5.29	14.65	3.62	19.74
312	c	5.97	2.93	3.65	14.12
313	b	5.35	11.82	2.69	19.58
314	c	5.18	7.46	5.95	14.88
315	a	13.95	8.96	17.83	17.79
316	b	5.34	9.34	0.81	19.49
317	b	7.67	12.43	0.6599999999999999	19.64
318	a	13.18	5.8100000000000005	16.99	17.0
319	a	15.59	5.62	16.71	17.75
320	a	15.34	5.85	17.98	17.89
321	b	6.3	14.03	1.5699999999999998	19.68
322	b	6.42	9.9	1.5699999999999998	19.13
323	b	7.7799999999999985	11.35	0.96	19.37
324	b	5.83	11.81	1.78	19.53
325	c	5.61	5.89	6.13	14.61
326	c	6.82	3.54	4.63	14.73
327	c	7.8599999999999985	3.56	3.93	14.87
328	a	14.04	7.46	17.06	17.81
329	b	5.91	10.88	-0.09000000000000008	19.42
330	a	14.39	5.78	16.84	17.82
331	a	13.17	5.92	18.13	17.66
332	c	7.91	3.9	4.58	14.66
333	b	5.84	14.04	3.41	19.41
334	b	5.67	11.19	1.64	19.37
335	b	6.63	9.32	0.49	19.75
336	c	6.71	4.53	4.99	14.85
337	c	5.3	4.03	3.82	14.63
338	c	5.23	4.57	4.72	14.11
339	c	5.13	4.95	4.02	14.4
340	a	14.48	4.85	17.79	17.17
341	a	25.59	5.6	16.17	17.6
342	b	7.0	11.71	1.5	19.93
343	b	5.72	11.08	-0.94	19.13
344	c	7.6099999999999985	4.12	4.43	14.23
345	b	5.96	15.53	1.45	19.1
346	a	14.66	10.4	16.72	17.33
347	a	15.49	8.85	16.22	17.59
348	b	5.62	6.9	1.22	19.74
349	b	6.01	11.69	1.42	19.77
350	a	14.0	6.22	18.67	17.76
351	c	5.65	6.12	4.73	14.88
352	a	15.3	6.95	17.4	17.1
353	c	5.78	4.86	5.54	14.41
354	b	5.44	11.55	1.95	19.16
355	c	5.49	3.06	5.7	14.67
356	b	5.98	11.29	-0.21	19.53
357	b	5.17	9.89	2.23	19.86
358	b	6.44	13.72	-0.24	19.16
359	c	5.85	4.63	6.27	14.75
360	c	5.9	4.42	5.9	15.0
361	a	13.57	4.0600000000000005	16.31	17.1
362	b	5.22	13.56	1.35	19.75
363	c	5.3	4.9	5.86	14.12
364	a	14.66	8.51	16.82	17.82
365	a	13.71	6.3	17.43	17.88
366	b	6.32	10.53	1.2	19.99
367	b	6.55	12.89	1.72	19.31
368	c	5.19	4.5	5.46	14.21
369	c	5.93	4.28	6.8100000000000005	14.87
370	b	5.25	10.88	0.52	19.7
371	c	5.7	3.07	4.55	14.34
372	c	5.71	2.55	3.76	14.1
373	b	5.25	14.24	0.9	19.73
374	c	5.54	6.09	4.27	14.16
375	c	5.68	4.28	5.09	14.44
376	c	5.35	5.6	5.93	14.61
377	b	9.68	13.9	2.12	19.19
378	c	5.4	3.9	6.1	14.57
379	a	14.88	6.24	17.35	17.42
380	a	15.48	10.07	13.8	17.81
381	a	14.21	5.45	15.77	17.61
382	b	5.49	13.07	-1.2200000000000002	19.34
383	a	14.17	6.43	17.72	17.88
384	b	5.26	12.4	0.87	19.31
385	b	6.65	10.95	1.37	19.44
386	c	6.23	2.73	5.21	14.88
387	c	6.52	5.41	4.88	14.32
388	b	6.14	14.03	1.61	19.55
389	a	13.76	6.59	16.72	17.82
390	a	13.2	8.4	16.12	17.22
391	b	5.87	12.32	0.17000000000000004	19.61
392	a	13.53	4.55	19.12	17.16
393	c	5.65	3.73	5.25	14.65
394	b	5.14	13.94	1.13	19.4
395	a	13.6	3.94	18.22	17.58
396	a	15.53	7.74	17.41	17.67
397	b	5.64	13.14	-0.21	19.08
398	c	7.71	7.65	4.64	14.19
399	b	5.44	11.39	0.27	19.78
400	c	5.34	4.34	4.25	14.6
401	a	13.97	6.74	17.03	17.63
402	a	13.34	7.62	17.63	17.57
403	c	6.5	4.5	3.48	14.65
404	c	5.48	5.52	5.58	14.2
405	c	7.84	2.85	6.19	14.74
406	a	13.25	6.75	17.52	17.73
407	b	5.8	14.67	2.21	19.08
408	a	14.04	9.11	16.88	17.59
409	c	6.8100000000000005	1.08	5.25	14.89
410	c	6.35	4.67	5.31	14.0
411	a	17.39	6.3	18.21	17.15
412	a	13.69	5.18	18.17	17.21
413	a	15.01	3.18	17.84	17.07
414	a	13.17	4.24	14.58	17.97
415	c	7.43	3.61	4.84	14.94
416	b	7.66	10.64	3.71	19.17
417	b	8.52	11.61	0.44	19.97
418	a	15.68	4.93	17.65	17.51
419	a	13.27	7.84	16.64	17.9
420	a	15.48	2.96	16.88	17.25
421	a	13.36	6.3100000000000005	17.77	17.85
422	a	13.3	4.68	18.1	17.57
423	a	13.63	6.15	15.79	17.9
424	b	6.99	9.93	1.67	19.7
425	b	6.04	13.16	1.04	19.06
426	a	16.7	7.4	16.23	17.25
427	c	6.27	3.88	4.72	14.12
428	a	33.69	5.54	17.55	17.26
429	c	6.41	3.21	4.56	14.76
430	c	6.39	1.04	5.09	14.07
431	c	5.99	3.98	7.13	14.31
432	c	5.93	7.54	6.2	14.43
433	a	13.27	5.87	17.94	17.46
434	a	15.22	6.04	16.75	17.72
435	c	8.43	5.85	4.17	14.86
436	c	7.31	1.93	4.3100000000000005	14.64
437	b	5.8100000000000005	10.11	0.25	19.68
438	c	5.49	3.59	5.0	14.38
439	a	16.009999999999998	4.9700000000000015	18.02	17.72
440	c	5.98	3.31	3.77	14.46
441	a	15.81	8.629999999999999	17.9	17.27
442	a	13.7	4.3599999999999985	17.26	17.03
443	a	13.26	5.89	16.59	17.94
444	b	5.49	9.79	0.53	19.55
445	a	13.9	8.24	17.68	17.52
446	b	8.27	11.53	0.18999999999999995	19.46
447	a	17.27	5.43	17.73	17.66
448	c	5.31	3.83	4.38	14.12
449	c	6.13	6.74	3.76	14.76
450	a	14.1	6.45	17.33	17.33
451	a	13.54	9.11	16.69	17.06
452	c	13.58	3.36	6.13	14.05
453	b	6.74	11.7	3.5	19.24
454	b	7.689999999999999	15.68	1.92	19.84
455	a	13.65	11.2	16.19	17.35
456	c	7.6400000000000015	2.94	5.95	14.04
457	a	14.85	12.53	17.09	17.11
458	b	5.5600000000000005	13.64	0.020000000000000014	19.22
459	a	13.33	4.9700000000000015	16.69	17.43
460	c	6.41	4.53	3.97	14.28
461	c	6.89	3.67	4.94	14.42
462	c	13.85	3.62	5.79	14.34
463	b	5.5600000000000005	5.94	2.2	19.3
464	a	15.55	7.47	15.88	17.11
465	c	5.8	6.04	4.39	14.39
466	a	13.74	3.73	16.91	17.43
467	c	5.32	4.18	4.45	14.87
468	b	7.7799999999999985	12.76	1.63	19.14
469	c	5.34	0.29000000000000004	3.5700000000000003	14.97
470	c	5.99	4.2	5.2	14.64
471	b	6.26	12.17	0.2	19.22
472	a	17.0	6.45	16.69	17.58
473	c	5.94	5.14	3.97	14.89
474	c	5.37	3.59	5.41	14.61
475	c	5.54	5.07	5.03	14.08
476	a	13.26	6.61	17.79	17.72
477	b	6.34	11.96	0.53	19.57
478	c	5.27	4.9	5.33	14.38
479	c	9.57	4.76	4.15	14.81
480	a	14.82	6.82	17.18	17.02
481	a	14.1	6.76	17.43	17.63
482	b	5.63	14.47	-0.25	19.88
483	a	14.11	5.93	16.66	17.54
484	c	6.16	5.88	4.36	14.89
485	c	5.08	5.14	4.34	14.12
486	c	5.78	5.63	4.83	14.59
487	c	10.69	1.7999999999999998	3.18	14.15
488	b	5.55	9.39	-0.05000000000000005	19.39
489	b	8.76	14.04	2.53	19.12
490	c	5.45	8.43	4.59	14.49
491	c	7.45	1.5299999999999998	4.55	14.29
492	c	5.67	2.4	5.87	14.04
493	a	14.17	8.11	16.47	17.78
494	a	15.52	6.41	17.13	17.86
495	a	13.55	7.49	16.53	17.93
496	b	14.58	12.53	0.16000000000000006	19.13
497	a	13.73	4.8599999999999985	15.23	17.94
498	a	14.49	6.28	16.23	17.76
499	c	6.34	2.3600000000000003	6.11	14.67
